%YAML 1.1
%TAG !u! tag:unity3d.com,2011:
--- !u!1045 &1
EditorBuildSettings:
  m_ObjectHideFlags: 0
  serializedVersion: 2
  m_Scenes:
  - enabled: 1
    path: Assets/Template/mainmenu.unity
    guid: 4c80957a09befb54d84c9f623cf148ae
  - enabled: 1
    path: Assets/Template/level1.unity
    guid: 8d5d3ee80882d9c45b896e52bfe553a1
  - enabled: 1
    path: Assets/Template/level2.unity
    guid: 366b3c5b4701c134d9a7a7d1e27d75ad
  - enabled: 1
    path: Assets/Template/level3.unity
    guid: 9bc67b9fbe12e4845b8bfe43f8cae537
  m_configObjects: {}
